…
#calculate the rmse of these three models
cv_df = 
  cv_df %>% 
  mutate(backward_model  = map(train, ~lm(bwt ~ babysex + bhead + blength + delwt + fincome + gaweeks + mheight + mrace + parity + ppwt + smoken, data = .x)),
         model_1  = map(train,~lm(bwt ~ blength + gaweeks, data = .x)),
         model_2  = map(train, ~lm(bwt ~ bhead * blength + bhead * babysex + babysex * blength + bhead * babysex * blength, data = .x))) %>%
  mutate(rmse_backward = map2_dbl(backward_model, test, ~rmse(model = .x, data = .y)),
         rmse_model_1 = map2_dbl(model_1, test, ~rmse(model = .x, data = .y)),
         rmse_model_2 = map2_dbl(model_2, test, ~rmse(model = .x, data = .y))
         )
  
cv_df  
```

    ## # A tibble: 100 x 9
    ##    train test  .id   backward_model model_1 model_2 rmse_backward rmse_model_1
    ##    <lis> <lis> <chr> <list>         <list>  <list>          <dbl>        <dbl>
    ##  1 <tib… <tib… 001   <lm>           <lm>    <lm>             279.         360.
    ##  2 <tib… <tib… 002   <lm>           <lm>    <lm>             265.         322.
    ##  3 <tib… <tib… 003   <lm>           <lm>    <lm>             263.         307.
    ##  4 <tib… <tib… 004   <lm>           <lm>    <lm>             284.         337.
    ##  5 <tib… <tib… 005   <lm>           <lm>    <lm>             285.         367.
    ##  6 <tib… <tib… 006   <lm>           <lm>    <lm>             268.         314.
    ##  7 <tib… <tib… 007   <lm>           <lm>    <lm>             275.         357.
    ##  8 <tib… <tib… 008   <lm>           <lm>    <lm>             283.         346.
    ##  9 <tib… <tib… 009   <lm>           <lm>    <lm>             269.         327.
    ## 10 <tib… <tib… 010   <lm>           <lm>    <lm>             271.         338.
    ## # … with 90 more rows, and 1 more variable: rmse_model_2 <dbl>
…
